Box office reception numbers — box_office • pixarfilms
…
box_office_otherbox office gross amount in U.S. dollars for other
territories

box_office_worldwidebox office gross amount in U.S. dollars
worldwide

    Source

    https://en.wikipedia.org/wiki/List_of_Pixar_films

    Examples

box_office

#> # A tibble: 23 x 5
#>    film           budget box_office_us_cana… box_office_other box_office_worldw…
#>    <chr>           <dbl>               <dbl>            <dbl>              <dbl>
#>  1 Toy Story      3.00e7           191796233        181757800          373554033
#>  2 A Bug's Life   1.20e8           162798565        200460294          363258859
#>  3 Toy Story 2    9.00e7           245852179        251522597          497374776
#>  4 Monsters, I…   1.15e8           289916256        342400393          632316649
#>  5 Finding Nemo   9.40e7           339714978        531300000          871014978
#>  6 The Incredi…   9.20e7           261441092        370165621          631606713
#>  7 Cars           1.20e8           244082982        217900167          461983149
#>  8 Ratatouille    1.50e8           206445654        417280431          623726085
#>  9 WALL-E         1.80e8           223808164        297503696          521311860
#> 10 Up             1.75e8           293004164        442094918          735099082
#> # … with 13 more rows
…
